-- Merging decision tree log ---
application
INJECTED from D:\Projects\cicd\order_app\android\app\src\main\AndroidManifest.xml:3:4-33:19
MERGED from [androidx.window:window:1.0.0-beta04] C:\Users\hayden.pham\.gradle\caches\transforms-3\0c3a77ed94e28d215c1d7450ff3dd02e\transformed\jetified-window-1.0.0-beta04\AndroidManifest.xml:24:5-31:19
MERGED from [androidx.window:window:1.0.0-beta04] C:\Users\hayden.pham\.gradle\caches\transforms-3\0c3a77ed94e28d215c1d7450ff3dd02e\transformed\jetified-window-1.0.0-beta04\AndroidManifest.xml:24:5-31:19
MERGED from [androidx.core:core:1.6.0] C:\Users\hayden.pham\.gradle\caches\transforms-3\5264d26c79b969439047c01ebd43e312\transformed\core-1.6.0\AndroidManifest.xml:24:5-89
MERGED from [androidx.core:core:1.6.0] C:\Users\hayden.pham\.gradle\caches\transforms-3\5264d26c79b969439047c01ebd43e312\transformed\core-1.6.0\AndroidManifest.xml:24:5-89
MERGED from [androidx.versionedparcelable:versionedparcelable:1.1.1] C:\Users\hayden.pham\.gradle\caches\transforms-3\8e5a23387089481022ab4d0ba1fdbb4d\transformed\versionedparcelable-1.1.1\AndroidManifest.xml:24:5-25:19
MERGED from [androidx.versionedparcelable:versionedparcelable:1.1.1] C:\Users\hayden.pham\.gradle\caches\transforms-3\8e5a23387089481022ab4d0ba1fdbb4d\transformed\versionedparcelable-1.1.1\AndroidManifest.xml:24:5-25:19
	android:appComponentFactory
		ADDED from [androidx.core:core:1.6.0] C:\Users\hayden.pham\.gradle\caches\transforms-3\5264d26c79b969439047c01ebd43e312\transformed\core-1.6.0\AndroidManifest.xml:24:18-86
	android:label
		ADDED from D:\Projects\cicd\order_app\android\app\src\main\AndroidManifest.xml:4:9-34
	android:icon
		ADDED from D:\Projects\cicd\order_app\android\app\src\main\AndroidManifest.xml:6:9-36
	android:name
		INJECTED from D:\Projects\cicd\order_app\android\app\src\main\AndroidManifest.xml
		ADDED from D:\Projects\cicd\order_app\android\app\src\main\AndroidManifest.xml:5:9-42
manifest
ADDED from D:\Projects\cicd\order_app\android\app\src\main\AndroidManifest.xml:1:1-34:12
INJECTED from D:\Projects\cicd\order_app\android\app\src\main\AndroidManifest.xml:1:1-34:12
INJECTED from D:\Projects\cicd\order_app\android\app\src\main\AndroidManifest.xml:1:1-34:12
INJECTED from D:\Projects\cicd\order_app\android\app\src\main\AndroidManifest.xml:1:1-34:12
MERGED from [:path_provider_android] D:\Projects\cicd\order_app\build\path_provider_android\intermediates\library_manifest\release\AndroidManifest.xml:2:1-9:12
MERGED from [androidx.window:window-java:1.0.0-beta04] C:\Users\hayden.pham\.gradle\caches\transforms-3\c46c1d4c4e09dcdc5c6b70da0500e16c\transformed\jetified-window-java-1.0.0-beta04\AndroidManifest.xml:17:1-23:12
MERGED from [androidx.window:window:1.0.0-beta04] C:\Users\hayden.pham\.gradle\caches\transforms-3\0c3a77ed94e28d215c1d7450ff3dd02e\transformed\jetified-window-1.0.0-beta04\AndroidManifest.xml:17:1-33:12
MERGED from [androidx.fragment:fragment:1.1.0] C:\Users\hayden.pham\.gradle\caches\transforms-3\25e854ea0f793b7a569f802a4f20c466\transformed\fragment-1.1.0\AndroidManifest.xml:17:1-24:12
MERGED from [androidx.viewpager:viewpager:1.0.0] C:\Users\hayden.pham\.gradle\caches\transforms-3\76fe3147e58812adc533d0078bddac7a\transformed\viewpager-1.0.0\AndroidManifest.xml:17:1-22:12
MERGED from [androidx.loader:loader:1.0.0] C:\Users\hayden.pham\.gradle\caches\transforms-3\2259cbc8cbc037c4dca4a5e395fe11c9\transformed\loader-1.0.0\AndroidManifest.xml:17:1-22:12
MERGED from [androidx.activity:activity:1.0.0] C:\Users\hayden.pham\.gradle\caches\transforms-3\a0f5eb9d35c38f5579699161a1671536\transformed\jetified-activity-1.0.0\AndroidManifest.xml:17:1-24:12
MERGED from [androidx.customview:customview:1.0.0] C:\Users\hayden.pham\.gradle\caches\transforms-3\65105968ba3359065b963206dc5e48d3\transformed\customview-1.0.0\AndroidManifest.xml:17:1-22:12
MERGED from [androidx.core:core:1.6.0] C:\Users\hayden.pham\.gradle\caches\transforms-3\5264d26c79b969439047c01ebd43e312\transformed\core-1.6.0\AndroidManifest.xml:17:1-26:12
MERGED from [androidx.lifecycle:lifecycle-runtime:2.2.0] C:\Users\hayden.pham\.gradle\caches\transforms-3\1b4d03222bec76389db793102740c47c\transformed\lifecycle-runtime-2.2.0\AndroidManifest.xml:17:1-24:12
MERGED from [androidx.savedstate:savedstate:1.0.0] C:\Users\hayden.pham\.gradle\caches\transforms-3\50c77cad5bc3e10ce24deb64b5afc663\transformed\jetified-savedstate-1.0.0\AndroidManifest.xml:17:1-24:12
MERGED from [androidx.lifecycle:lifecycle-livedata:2.0.0] C:\Users\hayden.pham\.gradle\caches\transforms-3\70635d3a2cda3980011074f198892847\transformed\lifecycle-livedata-2.0.0\AndroidManifest.xml:17:1-22:12
MERGED from [androidx.lifecycle:lifecycle-livedata-core:2.0.0] C:\Users\hayden.pham\.gradle\caches\transforms-3\6728c901282f004995e55df9e62c20de\transformed\lifecycle-livedata-core-2.0.0\AndroidManifest.xml:17:1-22:12
MERGED from [androidx.tracing:tracing:1.0.0] C:\Users\hayden.pham\.gradle\caches\transforms-3\3cd6f178e1fc01710e1d3772a1bca352\transformed\jetified-tracing-1.0.0\AndroidManifest.xml:17:1-24:12
MERGED from [androidx.arch.core:core-runtime:2.0.0] C:\Users\hayden.pham\.gradle\caches\transforms-3\94f393ae632fabe2d72298acb1c29218\transformed\core-runtime-2.0.0\AndroidManifest.xml:17:1-22:12
MERGED from [androidx.versionedparcelable:versionedparcelable:1.1.1] C:\Users\hayden.pham\.gradle\caches\transforms-3\8e5a23387089481022ab4d0ba1fdbb4d\transformed\versionedparcelable-1.1.1\AndroidManifest.xml:17:1-27:12
MERGED from [androidx.lifecycle:lifecycle-viewmodel:2.1.0] C:\Users\hayden.pham\.gradle\caches\transforms-3\594b12b6dacf1ea156cad8f4e9ccdb31\transformed\lifecycle-viewmodel-2.1.0\AndroidManifest.xml:17:1-22:12
MERGED from [androidx.annotation:annotation-experimental:1.1.0] C:\Users\hayden.pham\.gradle\caches\transforms-3\9ad430848eaa0f6198881a308929f8a0\transformed\jetified-annotation-experimental-1.1.0\AndroidManifest.xml:17:1-24:12
INJECTED from D:\Projects\cicd\order_app\android\app\src\main\AndroidManifest.xml:1:1-34:12
INJECTED from D:\Projects\cicd\order_app\android\app\src\main\AndroidManifest.xml:1:1-34:12
INJECTED from D:\Projects\cicd\order_app\android\app\src\main\AndroidManifest.xml:1:1-34:12
	package
		ADDED from D:\Projects\cicd\order_app\android\app\src\main\AndroidManifest.xml:2:5-34
		INJECTED from D:\Projects\cicd\order_app\android\app\src\main\AndroidManifest.xml
		INJECTED from D:\Projects\cicd\order_app\android\app\src\main\AndroidManifest.xml
	android:versionName
		INJECTED from D:\Projects\cicd\order_app\android\app\src\main\AndroidManifest.xml
		ADDED from D:\Projects\cicd\order_app\android\app\src\main\AndroidManifest.xml:1:1-34:12
		INJECTED from D:\Projects\cicd\order_app\android\app\src\main\AndroidManifest.xml
	android:versionCode
		INJECTED from D:\Projects\cicd\order_app\android\app\src\main\AndroidManifest.xml
		ADDED from D:\Projects\cicd\order_app\android\app\src\main\AndroidManifest.xml:1:1-34:12
		INJECTED from D:\Projects\cicd\order_app\android\app\src\main\AndroidManifest.xml
	xmlns:android
		ADDED from D:\Projects\cicd\order_app\android\app\src\main\AndroidManifest.xml:1:11-69
uses-sdk
INJECTED from D:\Projects\cicd\order_app\android\app\src\main\AndroidManifest.xml reason: use-sdk injection requested
INJECTED from D:\Projects\cicd\order_app\android\app\src\main\AndroidManifest.xml
INJECTED from D:\Projects\cicd\order_app\android\app\src\main\AndroidManifest.xml
MERGED from [:path_provider_android] D:\Projects\cicd\order_app\build\path_provider_android\intermediates\library_manifest\release\AndroidManifest.xml:7:5-44
MERGED from [:path_provider_android] D:\Projects\cicd\order_app\build\path_provider_android\intermediates\library_manifest\release\AndroidManifest.xml:7:5-44
MERGED from [androidx.window:window-java:1.0.0-beta04] C:\Users\hayden.pham\.gradle\caches\transforms-3\c46c1d4c4e09dcdc5c6b70da0500e16c\transformed\jetified-window-java-1.0.0-beta04\AndroidManifest.xml:19:5-21:41
MERGED from [androidx.window:window-java:1.0.0-beta04] C:\Users\hayden.pham\.gradle\caches\transforms-3\c46c1d4c4e09dcdc5c6b70da0500e16c\transformed\jetified-window-java-1.0.0-beta04\AndroidManifest.xml:19:5-21:41
MERGED from [androidx.window:window:1.0.0-beta04] C:\Users\hayden.pham\.gradle\caches\transforms-3\0c3a77ed94e28d215c1d7450ff3dd02e\transformed\jetified-window-1.0.0-beta04\AndroidManifest.xml:20:5-22:41
MERGED from [androidx.window:window:1.0.0-beta04] C:\Users\hayden.pham\.gradle\caches\transforms-3\0c3a77ed94e28d215c1d7450ff3dd02e\transformed\jetified-window-1.0.0-beta04\AndroidManifest.xml:20:5-22:41
MERGED from [androidx.fragment:fragment:1.1.0] C:\Users\hayden.pham\.gradle\caches\transforms-3\25e854ea0f793b7a569f802a4f20c466\transformed\fragment-1.1.0\AndroidManifest.xml:20:5-22:41
MERGED from [androidx.fragment:fragment:1.1.0] C:\Users\hayden.pham\.gradle\caches\transforms-3\25e854ea0f793b7a569f802a4f20c466\transformed\fragment-1.1.0\AndroidManifest.xml:20:5-22:41
MERGED from [androidx.viewpager:viewpager:1.0.0] C:\Users\hayden.pham\.gradle\caches\transforms-3\76fe3147e58812adc533d0078bddac7a\transformed\viewpager-1.0.0\AndroidManifest.xml:20:5-44
MERGED from [androidx.viewpager:viewpager:1.0.0] C:\Users\hayden.pham\.gradle\caches\transforms-3\76fe3147e58812adc533d0078bddac7a\transformed\viewpager-1.0.0\AndroidManifest.xml:20:5-44
MERGED from [androidx.loader:loader:1.0.0] C:\Users\hayden.pham\.gradle\caches\transforms-3\2259cbc8cbc037c4dca4a5e395fe11c9\transformed\loader-1.0.0\AndroidManifest.xml:20:5-44
MERGED from [androidx.loader:loader:1.0.0] C:\Users\hayden.pham\.gradle\caches\transforms-3\2259cbc8cbc037c4dca4a5e395fe11c9\transformed\loader-1.0.0\AndroidManifest.xml:20:5-44
MERGED from [androidx.activity:activity:1.0.0] C:\Users\hayden.pham\.gradle\caches\transforms-3\a0f5eb9d35c38f5579699161a1671536\transformed\jetified-activity-1.0.0\AndroidManifest.xml:20:5-22:41
MERGED from [androidx.activity:activity:1.0.0] C:\Users\hayden.pham\.gradle\caches\transforms-3\a0f5eb9d35c38f5579699161a1671536\transformed\jetified-activity-1.0.0\AndroidManifest.xml:20:5-22:41
MERGED from [androidx.customview:customview:1.0.0] C:\Users\hayden.pham\.gradle\caches\transforms-3\65105968ba3359065b963206dc5e48d3\transformed\customview-1.0.0\AndroidManifest.xml:20:5-44
MERGED from [androidx.customview:customview:1.0.0] C:\Users\hayden.pham\.gradle\caches\transforms-3\65105968ba3359065b963206dc5e48d3\transformed\customview-1.0.0\AndroidManifest.xml:20:5-44
MERGED from [androidx.core:core:1.6.0] C:\Users\hayden.pham\.gradle\caches\transforms-3\5264d26c79b969439047c01ebd43e312\transformed\core-1.6.0\AndroidManifest.xml:20:5-22:41
MERGED from [androidx.core:core:1.6.0] C:\Users\hayden.pham\.gradle\caches\transforms-3\5264d26c79b969439047c01ebd43e312\transformed\core-1.6.0\AndroidManifest.xml:20:5-22:41
MERGED from [androidx.lifecycle:lifecycle-runtime:2.2.0] C:\Users\hayden.pham\.gradle\caches\transforms-3\1b4d03222bec76389db793102740c47c\transformed\lifecycle-runtime-2.2.0\AndroidManifest.xml:20:5-22:41
MERGED from [androidx.lifecycle:lifecycle-runtime:2.2.0] C:\Users\hayden.pham\.gradle\caches\transforms-3\1b4d03222bec76389db793102740c47c\transformed\lifecycle-runtime-2.2.0\AndroidManifest.xml:20:5-22:41
MERGED from [androidx.savedstate:savedstate:1.0.0] C:\Users\hayden.pham\.gradle\caches\transforms-3\50c77cad5bc3e10ce24deb64b5afc663\transformed\jetified-savedstate-1.0.0\AndroidManifest.xml:20:5-22:41
MERGED from [androidx.savedstate:savedstate:1.0.0] C:\Users\hayden.pham\.gradle\caches\transforms-3\50c77cad5bc3e10ce24deb64b5afc663\transformed\jetified-savedstate-1.0.0\AndroidManifest.xml:20:5-22:41
MERGED from [androidx.lifecycle:lifecycle-livedata:2.0.0] C:\Users\hayden.pham\.gradle\caches\transforms-3\70635d3a2cda3980011074f198892847\transformed\lifecycle-livedata-2.0.0\AndroidManifest.xml:20:5-44
MERGED from [androidx.lifecycle:lifecycle-livedata:2.0.0] C:\Users\hayden.pham\.gradle\caches\transforms-3\70635d3a2cda3980011074f198892847\transformed\lifecycle-livedata-2.0.0\AndroidManifest.xml:20:5-44
MERGED from [androidx.lifecycle:lifecycle-livedata-core:2.0.0] C:\Users\hayden.pham\.gradle\caches\transforms-3\6728c901282f004995e55df9e62c20de\transformed\lifecycle-livedata-core-2.0.0\AndroidManifest.xml:20:5-44
MERGED from [androidx.lifecycle:lifecycle-livedata-core:2.0.0] C:\Users\hayden.pham\.gradle\caches\transforms-3\6728c901282f004995e55df9e62c20de\transformed\lifecycle-livedata-core-2.0.0\AndroidManifest.xml:20:5-44
MERGED from [androidx.tracing:tracing:1.0.0] C:\Users\hayden.pham\.gradle\caches\transforms-3\3cd6f178e1fc01710e1d3772a1bca352\transformed\jetified-tracing-1.0.0\AndroidManifest.xml:20:5-22:41
MERGED from [androidx.tracing:tracing:1.0.0] C:\Users\hayden.pham\.gradle\caches\transforms-3\3cd6f178e1fc01710e1d3772a1bca352\transformed\jetified-tracing-1.0.0\AndroidManifest.xml:20:5-22:41
MERGED from [androidx.arch.core:core-runtime:2.0.0] C:\Users\hayden.pham\.gradle\caches\transforms-3\94f393ae632fabe2d72298acb1c29218\transformed\core-runtime-2.0.0\AndroidManifest.xml:20:5-44
MERGED from [androidx.arch.core:core-runtime:2.0.0] C:\Users\hayden.pham\.gradle\caches\transforms-3\94f393ae632fabe2d72298acb1c29218\transformed\core-runtime-2.0.0\AndroidManifest.xml:20:5-44
MERGED from [androidx.versionedparcelable:versionedparcelable:1.1.1] C:\Users\hayden.pham\.gradle\caches\transforms-3\8e5a23387089481022ab4d0ba1fdbb4d\transformed\versionedparcelable-1.1.1\AndroidManifest.xml:20:5-22:41
MERGED from [androidx.versionedparcelable:versionedparcelable:1.1.1] C:\Users\hayden.pham\.gradle\caches\transforms-3\8e5a23387089481022ab4d0ba1fdbb4d\transformed\versionedparcelable-1.1.1\AndroidManifest.xml:20:5-22:41
MERGED from [androidx.lifecycle:lifecycle-viewmodel:2.1.0] C:\Users\hayden.pham\.gradle\caches\transforms-3\594b12b6dacf1ea156cad8f4e9ccdb31\transformed\lifecycle-viewmodel-2.1.0\AndroidManifest.xml:20:5-44
MERGED from [androidx.lifecycle:lifecycle-viewmodel:2.1.0] C:\Users\hayden.pham\.gradle\caches\transforms-3\594b12b6dacf1ea156cad8f4e9ccdb31\transformed\lifecycle-viewmodel-2.1.0\AndroidManifest.xml:20:5-44
MERGED from [androidx.annotation:annotation-experimental:1.1.0] C:\Users\hayden.pham\.gradle\caches\transforms-3\9ad430848eaa0f6198881a308929f8a0\transformed\jetified-annotation-experimental-1.1.0\AndroidManifest.xml:20:5-22:41
MERGED from [androidx.annotation:annotation-experimental:1.1.0] C:\Users\hayden.pham\.gradle\caches\transforms-3\9ad430848eaa0f6198881a308929f8a0\transformed\jetified-annotation-experimental-1.1.0\AndroidManifest.xml:20:5-22:41
INJECTED from D:\Projects\cicd\order_app\android\app\src\main\AndroidManifest.xml
INJECTED from D:\Projects\cicd\order_app\android\app\src\main\AndroidManifest.xml
	android:targetSdkVersion
		INJECTED from D:\Projects\cicd\order_app\android\app\src\main\AndroidManifest.xml
		ADDED from D:\Projects\cicd\order_app\android\app\src\main\AndroidManifest.xml
		INJECTED from D:\Projects\cicd\order_app\android\app\src\main\AndroidManifest.xml
	android:minSdkVersion
		INJECTED from D:\Projects\cicd\order_app\android\app\src\main\AndroidManifest.xml
		ADDED from D:\Projects\cicd\order_app\android\app\src\main\AndroidManifest.xml
		INJECTED from D:\Projects\cicd\order_app\android\app\src\main\AndroidManifest.xml
activity#ngaoschos.order_app.MainActivity
ADDED from D:\Projects\cicd\order_app\android\app\src\main\AndroidManifest.xml:7:9-27:20
	android:launchMode
		ADDED from D:\Projects\cicd\order_app\android\app\src\main\AndroidManifest.xml:10:13-43
	android:hardwareAccelerated
		ADDED from D:\Projects\cicd\order_app\android\app\src\main\AndroidManifest.xml:13:13-47
	android:windowSoftInputMode
		ADDED from D:\Projects\cicd\order_app\android\app\src\main\AndroidManifest.xml:14:13-55
	android:exported
		ADDED from D:\Projects\cicd\order_app\android\app\src\main\AndroidManifest.xml:9:13-36
	android:configChanges
		ADDED from D:\Projects\cicd\order_app\android\app\src\main\AndroidManifest.xml:12:13-163
	android:theme
		ADDED from D:\Projects\cicd\order_app\android\app\src\main\AndroidManifest.xml:11:13-47
	android:name
		ADDED from D:\Projects\cicd\order_app\android\app\src\main\AndroidManifest.xml:8:13-41
meta-data#io.flutter.embedding.android.NormalTheme
ADDED from D:\Projects\cicd\order_app\android\app\src\main\AndroidManifest.xml:19:13-22:17
	android:resource
		ADDED from D:\Projects\cicd\order_app\android\app\src\main\AndroidManifest.xml:21:15-52
	android:name
		ADDED from D:\Projects\cicd\order_app\android\app\src\main\AndroidManifest.xml:20:15-70
intent-filter#action:name:android.intent.action.MAIN+category:name:android.intent.category.LAUNCHER
ADDED from D:\Projects\cicd\order_app\android\app\src\main\AndroidManifest.xml:23:13-26:29
action#android.intent.action.MAIN
ADDED from D:\Projects\cicd\order_app\android\app\src\main\AndroidManifest.xml:24:17-68
	android:name
		ADDED from D:\Projects\cicd\order_app\android\app\src\main\AndroidManifest.xml:24:25-66
category#android.intent.category.LAUNCHER
ADDED from D:\Projects\cicd\order_app\android\app\src\main\AndroidManifest.xml:25:17-76
	android:name
		ADDED from D:\Projects\cicd\order_app\android\app\src\main\AndroidManifest.xml:25:27-74
meta-data#flutterEmbedding
ADDED from D:\Projects\cicd\order_app\android\app\src\main\AndroidManifest.xml:30:9-32:33
	android:value
		ADDED from D:\Projects\cicd\order_app\android\app\src\main\AndroidManifest.xml:32:13-30
	android:name
		ADDED from D:\Projects\cicd\order_app\android\app\src\main\AndroidManifest.xml:31:13-44
uses-library#androidx.window.extensions
ADDED from [androidx.window:window:1.0.0-beta04] C:\Users\hayden.pham\.gradle\caches\transforms-3\0c3a77ed94e28d215c1d7450ff3dd02e\transformed\jetified-window-1.0.0-beta04\AndroidManifest.xml:25:9-27:40
	android:required
		ADDED from [androidx.window:window:1.0.0-beta04] C:\Users\hayden.pham\.gradle\caches\transforms-3\0c3a77ed94e28d215c1d7450ff3dd02e\transformed\jetified-window-1.0.0-beta04\AndroidManifest.xml:27:13-37
	android:name
		ADDED from [androidx.window:window:1.0.0-beta04] C:\Users\hayden.pham\.gradle\caches\transforms-3\0c3a77ed94e28d215c1d7450ff3dd02e\transformed\jetified-window-1.0.0-beta04\AndroidManifest.xml:26:13-54
uses-library#androidx.window.sidecar
ADDED from [androidx.window:window:1.0.0-beta04] C:\Users\hayden.pham\.gradle\caches\transforms-3\0c3a77ed94e28d215c1d7450ff3dd02e\transformed\jetified-window-1.0.0-beta04\AndroidManifest.xml:28:9-30:40
	android:required
		ADDED from [androidx.window:window:1.0.0-beta04] C:\Users\hayden.pham\.gradle\caches\transforms-3\0c3a77ed94e28d215c1d7450ff3dd02e\transformed\jetified-window-1.0.0-beta04\AndroidManifest.xml:30:13-37
	android:name
		ADDED from [androidx.window:window:1.0.0-beta04] C:\Users\hayden.pham\.gradle\caches\transforms-3\0c3a77ed94e28d215c1d7450ff3dd02e\transformed\jetified-window-1.0.0-beta04\AndroidManifest.xml:29:13-51
